\relax 
\providecommand\hyper@newdestlabel[2]{}
\providecommand\HyperFirstAtBeginDocument{\AtBeginDocument}
\HyperFirstAtBeginDocument{\ifx\hyper@anchor\@undefined
\global\let\oldcontentsline\contentsline
\gdef\contentsline#1#2#3#4{\oldcontentsline{#1}{#2}{#3}}
\global\let\oldnewlabel\newlabel
\gdef\newlabel#1#2{\newlabelxx{#1}#2}
\gdef\newlabelxx#1#2#3#4#5#6{\oldnewlabel{#1}{{#2}{#3}}}
\AtEndDocument{\ifx\hyper@anchor\@undefined
\let\contentsline\oldcontentsline
\let\newlabel\oldnewlabel
\fi}
\fi}
\global\let\hyper@last\relax 
\gdef\HyperFirstAtBeginDocument#1{#1}
\providecommand*\HyPL@Entry[1]{}
\providecommand\babel@aux[2]{}
\@nameuse{bbl@beforestart}
\catcode `:\active 
\catcode `;\active 
\catcode `!\active 
\catcode `?\active 
\HyPL@Entry{0<</S/D>>}
\babel@aux{french}{}
\@writefile{toc}{\contentsline {subsection}{\numberline {I}Introduction}{1}{subsection.0.1}\protected@file@percent }
\@writefile{toc}{\contentsline {subsection}{\numberline {II}dfdf}{1}{subsection.0.2}\protected@file@percent }
\@writefile{toc}{\contentsline {subsection}{\numberline {III} de la matrice}{1}{subsection.0.3}\protected@file@percent }
\@writefile{toc}{\contentsline {subsection}{\numberline {IV}Déterminant pour matrice tridiagonale symétrique}{1}{subsection.0.4}\protected@file@percent }
\@writefile{toc}{\contentsline {subsection}{\numberline {V}}{1}{subsection.0.5}\protected@file@percent }
\@writefile{toc}{\contentsline {subsection}{\numberline {VI}Critère d'arrêt}{1}{subsection.0.6}\protected@file@percent }
\@writefile{toc}{\contentsline {subsection}{\numberline {VII}Qd le vecteur abs(rk)<1e-6}{1}{subsection.0.7}\protected@file@percent }
\@writefile{toc}{\contentsline {subsection}{\numberline {VIII}Mode d'emploi- tests}{1}{subsection.0.8}\protected@file@percent }
\@writefile{toc}{\contentsline {subsection}{\numberline {IX}}{1}{subsection.0.9}\protected@file@percent }
\@writefile{toc}{\contentsline {subsection}{\numberline {X}Conclusion}{1}{subsection.0.10}\protected@file@percent }
\gdef \@abspage@last{1}
